{
    "postgresql": {
        "server": "localhost",
        "port": "5432",
        "schema": "public",
        "db_user": "openfoodfacts",
        "db_password": "postgres",
        "db_name": "openfoodfacts"
    }
}